gene	cluster
AT4G33420	1.1.1.1.1.1.1
AT5G13990	1.1.1.1.1.1.1
AT4G08630	1.1.1.1.1.1.1
AT1G12010	1.1.1.1.1.1.1
AT2G42560	1.1.1.1.1.1.1
AT4G03965	1.1.1.1.1.1.1
AT1G26680	1.1.1.1.1.1.1
AT5G66780	1.1.1.1.1.1.1
AT5G19520	1.1.1.1.1.1.1
AT4G23410	1.1.1.1.1.1.1
AT1G62290	1.1.1.1.1.1.1
AT3G21720	1.1.1.1.1.1.1
AT5G66600	1.1.1.1.1.1.1
AT2G42790	1.1.1.1.1.1.1
AT4G28720	1.1.1.1.1.1.1
AT5G33382	1.1.1.1.1.1.1
AT5G46380	1.1.1.1.1.1.2
AT3G14940	1.1.1.1.1.1.2
AT4G14368	1.1.1.1.1.1.2
AT1G11440	1.1.1.1.1.1.2
AT3G52490	1.1.1.1.1.1.2
AT1G28390	1.1.1.1.1.1.2
AT5G15120	1.1.1.1.1.1.2
AT3G13404	1.1.1.1.1.1.2
AT1G29270	1.1.1.1.1.1.2
AT3G11680	1.1.1.1.1.1.3
AT5G04470	1.1.1.1.1.1.3
AT1G73120	1.1.1.1.1.1.3
AT3G25810	1.1.1.1.1.1.3
AT5G22310	1.1.1.1.1.1.3
AT1G49475	1.1.1.1.1.1.3
AT3G13640	1.1.1.1.1.1.3
AT1G78970	1.1.1.1.1.1.3
AT3G05640	1.1.1.1.1.2
AT5G03620	1.1.1.1.1.2
AT2G27770	1.1.1.1.1.2
AT3G12730	1.1.1.1.1.2
AT4G13410	1.1.1.1.1.2
AT1G48660	1.1.1.1.2.1
AT1G50810	1.1.1.1.2.1
AT5G15070	1.1.1.1.2.1
AT3G60920	1.1.1.1.2.1
AT1G54560	1.1.1.1.2.1
AT3G51490	1.1.1.1.2.1
AT5G65590	1.1.1.1.2.1
AT2G31920	1.1.1.1.2.1
AT3G28920	1.1.1.1.2.1
AT2G18196	1.1.1.1.2.1
AT2G47780	1.1.1.1.2.1
AT5G37790	1.1.1.1.2.1
AT5G43650	1.1.1.1.2.1
AT5G48850	1.1.1.1.2.1
AT1G04540	1.1.1.1.2.2
AT3G18360	1.1.1.1.2.2
AT5G43935	1.1.1.1.2.2
AT1G58460	1.1.1.1.2.2
AT3G16300	1.1.1.1.2.2
AT4G10770	1.1.1.1.2.2
AT3G57010	1.1.1.1.2.3
AT3G05190	1.1.1.1.2.3
AT3G63450	1.1.1.1.2.3
AT5G01880	1.1.1.1.2.3
AT4G36950	1.1.1.1.2.3
AT2G27190	1.1.1.2
AT1G66180	1.1.1.2
AT1G13710	1.1.1.2
AT2G20515	1.1.1.2
AT3G16330	1.1.1.2
AT1G25450	1.1.1.2
AT5G09463	1.1.1.2
AT5G09462	1.1.1.2
AT5G09460	1.1.1.2
AT5G09461	1.1.1.2
AT5G22500	1.1.1.2
AT5G23810	1.1.1.2
AT1G56020	1.1.1.2
AT4G31890	1.1.1.2
AT1G78580	1.1.1.2
AT1G15550	1.1.1.2
AT1G29660	1.1.1.2
AT5G21482	1.1.1.2
AT5G65020	1.1.1.2
AT2G22330	1.1.1.2
AT2G45900	1.1.2
AT1G70940	1.1.2
AT1G22760	1.1.2
AT2G25810	1.1.2
AT4G15480	1.1.2
AT3G02050	1.1.2
AT3G10760	1.1.2
AT4G36570	1.1.2
AT5G59780	1.1.2
AT4G34510	1.1.2
AT5G03760	1.1.2
AT2G37460	1.1.2
AT4G38310	1.1.2
AT5G16030	1.1.2
AT2G23180	1.1.2
AT1G61680	1.1.2
AT5G47720	1.1.2
AT4G10290	1.2
AT2G24150	1.2
AT1G52190	1.2
AT2G47000	1.2
AT2G36800	1.2
AT5G47910	1.2
AT2G43800	1.2
AT1G28440	1.2
AT1G05680	10
AT3G02550	10
AT5G59130	10
AT1G67360	10
AT5G14200	10
AT3G03450	10
AT1G76620	10
AT4G22570	10
AT4G21970	10
AT5G38120	10
AT1G01250	10
AT4G17870	11
AT2G39130	11
AT2G40330	11
AT3G26510	11
AT3G10985	11
AT4G32480	11
AT3G47960	11
AT1G27290	11
AT1G08630	11
AT1G06620	11
AT4G19160	11
AT1G64450	12
AT5G25280	12
AT5G01210	12
AT5G01215	12
AT2G22420	12
AT3G16370	12
AT3G23770	12
AT4G11360	12
AT5G13220	12
AT3G22275	12
AT1G62500	13
AT5G67360	13
AT2G45160	13
AT1G75388	13
AT1G75390	13
AT2G36870	13
AT5G53370	13
AT4G01700	13
AT1G10682	13
AT2G28470	14
AT3G10870	14
AT5G20270	14
AT3G54810	14
AT2G38995	14
AT1G68780	14
AT2G21050	14
AT1G14440	14
AT5G40348	14
AT2G47030	15
AT1G24070	15
AT5G04885	15
AT1G65900	15
AT1G17744	15
AT2G21640	15
AT4G21910	15
AT4G33050	16
AT3G21750	16
AT1G19050	16
AT2G17880	16
AT5G61590	16
AT1G24147	16
AT1G17380	16
AT2G20670	17
AT4G35770	17
AT2G38230	17
AT3G59940	17
AT5G24530	17
AT3G56400	17
AT2G44940	18
AT2G37170	18
AT2G23170	18
AT5G20190	18
AT2G20570	18
AT1G15500	18
AT5G02230	19
AT4G21650	19
AT1G61800	19
AT4G39800	19
AT3G22370	19
AT3G28220	19
AT5G57320	2.1.1.1
AT4G32920	2.1.1.1
AT3G23270	2.1.1.1
AT4G24860	2.1.1.1
AT2G25790	2.1.1.1
AT1G27660	2.1.1.1
AT1G12860	2.1.1.1
AT5G19260	2.1.1.1
AT4G00780	2.1.1.1
AT5G57130	2.1.1.1
AT5G46180	2.1.1.1
AT1G06100	2.1.1.1
AT3G59270	2.1.1.1
AT5G50915	2.1.1.2
AT4G38190	2.1.1.2
AT3G46520	2.1.1.2
AT1G68750	2.1.1.2
AT4G02100	2.1.1.2
AT5G14450	2.1.1.2
AT1G08500	2.1.1.2
AT4G11190	2.1.1.2
AT5G10170	2.1.1.2
AT3G18900	2.1.1.2
AT3G02500	2.1.1.2
AT1G28070	2.1.2
AT4G21895	2.1.2
AT5G59370	2.1.2
AT1G17190	2.1.2
AT3G42670	2.1.2
AT1G21090	2.1.2
AT4G26760	2.1.2
AT3G03170	2.1.2
AT2G01830	2.1.2
AT1G24575	2.1.2
AT2G24762	2.1.2
AT2G45870	2.1.2
AT1G54020	2.1.2
AT1G22490	2.1.2
AT4G36970	2.1.2
AT5G04510	2.1.2
AT1G72520	2.1.2
AT4G16740	2.1.2
AT5G28237	2.1.2
AT1G04470	2.1.3
AT4G24580	2.1.3
AT4G32510	2.1.3
AT1G55020	2.1.3
AT1G68740	2.1.3
AT2G01210	2.1.3
AT1G73010	2.1.3
AT1G54000	2.1.3
AT2G22190	2.1.3
AT3G05400	2.1.3
AT3G10040	2.1.3
AT4G28100	2.1.3
AT1G78610	2.1.3
AT5G61660	2.1.3
AT2G38750	2.2
AT2G44130	2.2
AT2G28870	2.2
AT1G70560	2.2
AT1G33170	2.2
AT5G47640	2.2
AT2G17730	2.2
AT3G51450	2.2
AT4G27570	2.2
AT4G23870	2.2
AT5G17030	2.2
AT4G05070	20
AT1G18740	20
AT3G55110	20
AT4G10380	20
AT1G71030	20
AT4G03400	21
AT1G02930	21
AT2G37180	21
AT5G37300	21
AT5G21940	22
AT5G65310	22
AT1G72450	22
AT1G19670	22
AT5G28640	23
AT2G47180	23
AT2G22240	23
AT3G50970	23
AT1G01620	24
AT5G52310	24
AT4G08870	24
AT5G03350	24
AT1G19640	25
AT3G51895	25
AT4G16980	25
AT4G31500	25
AT3G52500	26
AT1G12780	26
AT4G37870	26
AT1G53160	27
AT1G21460	27
AT4G39940	27
AT2G32280	28
AT4G20320	28
AT2G18230	28
AT3G47800	29
AT1G19180	29
AT1G64390	29
AT1G26800	3.1.1.1.1
AT4G04450	3.1.1.1.1
AT5G28300	3.1.1.1.1
AT1G23000	3.1.1.1.1
AT1G79420	3.1.1.1.1
AT1G77690	3.1.1.1.1
AT2G40475	3.1.1.1.1
AT2G16210	3.1.1.1.1
AT2G16660	3.1.1.1.1
AT4G03510	3.1.1.1.1
AT2G01940	3.1.1.1.1
AT1G69580	3.1.1.1.1
AT1G27210	3.1.1.1.1
AT5G56530	3.1.1.1.1
AT1G02460	3.1.1.1.1
AT1G48470	3.1.1.1.2
AT5G59580	3.1.1.1.2
AT1G77990	3.1.1.1.2
AT3G28345	3.1.1.1.2
AT4G15670	3.1.1.1.2
AT4G24670	3.1.1.1.2
AT1G25530	3.1.1.2
AT1G13245	3.1.1.2
AT4G31370	3.1.1.2
AT3G22410	3.1.1.2
AT2G34930	3.1.1.2
AT4G00180	3.1.1.2
AT2G22680	3.1.1.2
AT1G71960	3.1.1.2
AT4G38410	3.1.1.2
AT3G23430	3.1.1.2
AT2G07680	3.1.1.2
AT2G20880	3.1.2
AT2G38470	3.1.2
AT3G25560	3.1.2
AT5G56550	3.1.2
AT2G34710	3.1.2
AT1G66390	3.1.2
AT5G02440	3.1.2
AT2G39510	3.1.2
AT2G43150	3.1.2
AT5G42650	3.1.2
AT1G12320	3.2
AT4G00355	3.2
AT5G52320	3.2
AT2G33330	3.2
AT1G63800	3.2
AT4G01610	3.2
AT5G65110	3.2
AT5G10290	3.2
AT1G80440	3.2
AT5G16370	3.2
AT5G24890	3.2
AT3G26890	3.2
AT4G37520	3.2
AT3G22142	3.2
AT1G44350	3.2
AT1G50310	3.2
AT1G67830	3.2
AT3G10020	30
AT3G08030	30
AT3G15630	30
AT5G19120	31
AT5G22920	31
AT1G08570	31
AT3G62230	32
AT1G21880	32
AT1G31550	32
AT5G61420	33
AT2G29670	33
AT5G64260	33
AT2G18328	34
AT3G61820	34
AT5G02940	34
AT1G09970	35
AT5G41080	35
AT5G05600	35
AT1G52410	36
AT1G17745	36
AT4G16267	36
AT4G28780	37
AT3G55760	37
AT3G15020	37
AT1G51760	38
AT1G74950	38
AT2G32150	38
AT1G55850	39
AT5G09440	39
AT5G60680	4.1
AT5G04230	4.1
AT3G18280	4.1
AT1G23390	4.1
AT3G09450	4.1
AT2G16630	4.1
AT2G36590	4.1
AT2G41990	4.1
AT1G06360	4.1
AT4G27730	4.1
AT2G01570	4.1
AT2G47750	4.1
AT5G63850	4.1
AT1G75820	4.1
AT1G69870	4.1
AT1G20510	4.1
AT1G23090	4.1
AT2G32710	4.2
AT2G16060	4.2
AT2G39980	4.2
AT3G54430	4.2
AT1G10470	4.2
AT1G80640	4.2
AT2G38820	4.2
AT2G40000	4.2
AT4G28240	4.2
AT4G37610	4.2
AT5G57180	4.2
AT3G05650	4.2
AT5G40450	4.2
AT1G77660	4.2
AT3G23730	40
AT3G54600	40
AT4G36040	41
AT1G70700	41
AT2G25900	42
AT3G29030	42
AT1G80920	43
AT1G29670	43
AT1G78850	44
AT1G43910	44
AT5G26700	45
AT5G12270	45
AT1G06000	46
AT2G39010	46
AT1G06002	47
AT2G46650	47
AT1G53070	48
AT1G48330	48
AT3G15680	49
AT1G67750	49
AT1G78710	5.1.1
AT2G36660	5.1.1
AT2G19330	5.1.1
AT1G04880	5.1.1
AT3G24810	5.1.1
AT5G13290	5.1.1
AT2G46920	5.1.1
AT1G56680	5.1.1
AT2G18280	5.1.1
AT5G61600	5.1.1
AT3G02410	5.1.1
AT2G44578	5.1.1
AT2G18970	5.1.1
AT2G18969	5.1.1
AT1G78700	5.1.2
AT1G51420	5.1.2
AT5G09550	5.1.2
AT5G25490	5.1.2
AT5G67600	5.1.2
AT4G24240	5.1.2
AT2G46950	5.1.2
AT2G26695	5.1.2
AT2G34600	5.1.2
AT2G30540	5.2
AT3G28007	5.2
AT2G44140	5.2
AT5G46710	5.2
AT2G42885	5.2
AT3G21755	5.2
AT1G80280	50
AT1G75500	50
AT2G06850	51
AT5G20250	51
AT2G39330	52
AT4G00870	52
AT5G37600	53
AT1G70710	53
AT5G24770	54
AT5G14920	54
AT4G03050	55
AT4G26530	55
AT2G31790	56
AT2G20610	56
AT4G12730	57
AT1G62560	57
AT1G21680	58
AT2G42570	58
AT1G17200	59
AT4G15545	59
AT3G23580	6
AT4G39110	6
AT4G36930	6
AT3G13690	6
AT1G75900	6
AT5G50012	6
AT5G50010	6
AT5G50011	6
AT1G52700	6
AT3G13650	6
AT1G14350	6
AT2G46530	6
AT1G03170	6
AT4G20430	6
AT3G15350	6
AT1G80050	6
AT2G43550	60
AT1G52400	60
AT5G24420	61
AT3G16470	61
AT1G72180	7
AT1G01120	7
AT3G50280	7
AT5G45960	7
AT4G30460	7
AT1G32450	7
AT3G28917	7
AT4G32980	7
AT4G24120	7
AT1G80760	7
AT4G22200	7
AT5G24150	7
AT1G52000	7
AT1G02065	8
AT1G25440	8
AT4G30250	8
AT4G12030	8
AT4G30450	8
AT1G57750	8
AT4G33790	8
AT4G14040	8
AT4G29720	8
AT4G10270	8
AT5G22090	8
AT4G23990	8
AT3G60530	9
AT4G31550	9
AT2G37630	9
AT5G39760	9
AT2G22500	9
AT3G12143	9
AT5G44730	9
AT1G63480	9
AT2G24210	9
AT5G42500	9
AT3G27809	9
AT3G27810	9
