cluster	numberGenes	numDEat2hours	perDEat2hours	numDEat4hours	perDEat4hours	numDEat8hours	perDEat8hours	numHasMotif	perHasMotif
1.1.1.1.1.1.1	16	5	31.25	3	18.75	11	68.75	3	18.75
1.1.1.1.1.1.2	9	4	44.4444444444444	3	33.3333333333333	3	33.3333333333333	2	22.2222222222222
1.1.1.1.1.1.3	8	0	0	2	25	7	87.5	3	37.5
1.1.1.1.1.2	5	2	40	1	20	2	40	0	0
1.1.1.1.2.1	14	6	42.8571428571429	5	35.7142857142857	7	50	3	21.4285714285714
1.1.1.1.2.2	6	2	33.3333333333333	2	33.3333333333333	4	66.6666666666667	0	0
1.1.1.1.2.3	5	1	20	4	80	4	80	2	40
1.1.1.2	20	4	20	16	80	7	35	1	5
1.1.2	17	3	17.6470588235294	10	58.8235294117647	12	70.5882352941177	3	17.6470588235294
1.2	8	1	12.5	2	25	7	87.5	1	12.5
10	11	3	27.2727272727273	9	81.8181818181818	6	54.5454545454545	2	18.1818181818182
11	11	3	27.2727272727273	7	63.6363636363636	5	45.4545454545455	2	18.1818181818182
12	10	4	40	6	60	5	50	1	10
13	9	0	0	7	77.7777777777778	5	55.5555555555556	1	11.1111111111111
14	9	0	0	5	55.5555555555556	6	66.6666666666667	1	11.1111111111111
15	7	1	14.2857142857143	4	57.1428571428571	4	57.1428571428571	1	14.2857142857143
16	7	1	14.2857142857143	5	71.4285714285714	3	42.8571428571429	1	14.2857142857143
17	6	4	66.6666666666667	6	100	2	33.3333333333333	1	16.6666666666667
18	6	3	50	5	83.3333333333333	1	16.6666666666667	2	33.3333333333333
19	6	1	16.6666666666667	3	50	3	50	1	16.6666666666667
2.1.1.1	13	4	30.7692307692308	4	30.7692307692308	8	61.5384615384615	3	23.0769230769231
2.1.1.2	11	4	36.3636363636364	5	45.4545454545455	8	72.7272727272727	2	18.1818181818182
2.1.2	19	3	15.7894736842105	9	47.3684210526316	14	73.6842105263158	4	21.0526315789474
2.1.3	14	4	28.5714285714286	7	50	5	35.7142857142857	4	28.5714285714286
2.2	11	3	27.2727272727273	4	36.3636363636364	8	72.7272727272727	0	0
20	5	1	20	5	100	1	20	1	20
21	4	3	75	2	50	1	25	0	0
22	4	1	25	2	50	4	100	0	0
23	4	0	0	3	75	3	75	2	50
24	4	0	0	1	25	4	100	0	0
25	4	0	0	2	50	2	50	1	25
26	3	2	66.6666666666667	3	100	3	100	1	33.3333333333333
27	3	2	66.6666666666667	2	66.6666666666667	3	100	1	33.3333333333333
28	3	1	33.3333333333333	1	33.3333333333333	3	100	0	0
29	3	1	33.3333333333333	3	100	1	33.3333333333333	1	33.3333333333333
3.1.1.1.1	15	2	13.3333333333333	9	60	9	60	1	6.66666666666667
3.1.1.1.2	6	2	33.3333333333333	3	50	2	33.3333333333333	0	0
3.1.1.2	11	5	45.4545454545455	6	54.5454545454545	6	54.5454545454545	1	9.09090909090909
3.1.2	10	4	40	3	30	5	50	0	0
3.2	17	2	11.7647058823529	11	64.7058823529412	11	64.7058823529412	3	17.6470588235294
30	3	1	33.3333333333333	3	100	1	33.3333333333333	1	33.3333333333333
31	3	1	33.3333333333333	3	100	0	0	0	0
32	3	1	33.3333333333333	1	33.3333333333333	2	66.6666666666667	0	0
33	3	2	66.6666666666667	1	33.3333333333333	0	0	1	33.3333333333333
34	3	0	0	2	66.6666666666667	2	66.6666666666667	0	0
35	3	0	0	2	66.6666666666667	3	100	0	0
36	3	0	0	2	66.6666666666667	2	66.6666666666667	1	33.3333333333333
37	3	0	0	2	66.6666666666667	1	33.3333333333333	0	0
38	3	0	0	0	0	3	100	1	33.3333333333333
39	2	1	50	2	100	1	50	0	0
4.1	17	10	58.8235294117647	9	52.9411764705882	8	47.0588235294118	2	11.7647058823529
4.2	14	3	21.4285714285714	8	57.1428571428571	6	42.8571428571429	0	0
40	2	1	50	2	100	1	50	0	0
41	2	1	50	1	50	2	100	0	0
42	2	1	50	2	100	1	50	0	0
43	2	1	50	2	100	1	50	0	0
44	2	1	50	2	100	0	0	0	0
45	2	1	50	0	0	1	50	0	0
46	2	0	0	2	100	2	100	0	0
47	2	0	0	2	100	2	100	0	0
48	2	0	0	1	50	2	100	0	0
49	2	0	0	1	50	2	100	1	50
5.1.1	14	4	28.5714285714286	7	50	9	64.2857142857143	2	14.2857142857143
5.1.2	9	3	33.3333333333333	2	22.2222222222222	7	77.7777777777778	1	11.1111111111111
5.2	6	0	0	4	66.6666666666667	3	50	0	0
50	2	0	0	2	100	1	50	0	0
51	2	0	0	2	100	1	50	1	50
52	2	0	0	2	100	1	50	0	0
53	2	0	0	1	50	2	100	1	50
54	2	0	0	2	100	1	50	0	0
55	2	0	0	1	50	1	50	0	0
56	2	0	0	1	50	1	50	1	50
57	2	0	0	2	100	0	0	0	0
58	2	0	0	2	100	0	0	0	0
59	2	0	0	1	50	1	50	1	50
6	16	2	12.5	9	56.25	9	56.25	2	12.5
60	2	0	0	0	0	2	100	0	0
61	2	0	0	0	0	2	100	0	0
7	13	3	23.0769230769231	9	69.2307692307692	7	53.8461538461538	0	0
8	12	2	16.6666666666667	10	83.3333333333333	6	50	1	8.33333333333333
9	12	0	0	5	41.6666666666667	9	75	0	0
