########################################################################
PBS Prologue:	Fri Nov  6 17:47:11 EST 2015
Job ID:		232835.login00.halcyon.local
Username:	ieclabau
Group:		lorainelab
Job Name:	flat2dex4hours
Limits:		neednodes=1:ppn=4,nodes=1:ppn=4,vmem=4000mb,walltime=08:00:00
Queue:		compute
Account:	
Nodes:		compute04[4] 
########################################################################


../fastq/nicknames/flat2dex4hours.fastq.gz
flat2dex4hours
/lustre/groups/lorainelab/index/bowtie2/A_thaliana_Jun_2009

[2015-11-06 17:47:12] Beginning TopHat run (v2.0.13)
-----------------------------------------------
[2015-11-06 17:47:12] Checking for Bowtie
		  Bowtie version:	 2.2.5.0
[2015-11-06 17:47:12] Checking for Bowtie index files (genome)..
[2015-11-06 17:47:12] Checking for reference FASTA file
[2015-11-06 17:47:12] Generating SAM header for /lustre/groups/lorainelab/index/bowtie2/A_thaliana_Jun_2009
[2015-11-06 17:47:12] Preparing reads
	 left reads: min. length=100, max. length=100, 27657557 kept reads (1035 discarded)
[2015-11-06 17:54:50] Mapping left_kept_reads to genome A_thaliana_Jun_2009 with Bowtie2 
[2015-11-06 18:18:26] Mapping left_kept_reads_seg1 to genome A_thaliana_Jun_2009 with Bowtie2 (1/4)
[2015-11-06 18:21:49] Mapping left_kept_reads_seg2 to genome A_thaliana_Jun_2009 with Bowtie2 (2/4)
[2015-11-06 18:25:18] Mapping left_kept_reads_seg3 to genome A_thaliana_Jun_2009 with Bowtie2 (3/4)
[2015-11-06 18:28:51] Mapping left_kept_reads_seg4 to genome A_thaliana_Jun_2009 with Bowtie2 (4/4)
[2015-11-06 18:32:18] Searching for junctions via segment mapping
[2015-11-06 18:35:01] Retrieving sequences for splices
[2015-11-06 18:35:06] Indexing splices
Building a SMALL index
[2015-11-06 18:35:22] Mapping left_kept_reads_seg1 to genome segment_juncs with Bowtie2 (1/4)
[2015-11-06 18:37:03] Mapping left_kept_reads_seg2 to genome segment_juncs with Bowtie2 (2/4)
[2015-11-06 18:38:48] Mapping left_kept_reads_seg3 to genome segment_juncs with Bowtie2 (3/4)
[2015-11-06 18:40:34] Mapping left_kept_reads_seg4 to genome segment_juncs with Bowtie2 (4/4)
[2015-11-06 18:42:11] Joining segment hits
[2015-11-06 18:45:40] Reporting output tracks
-----------------------------------------------
[2015-11-06 18:58:02] A summary of the alignment counts can be found in ./flat2dex4hours/align_summary.txt
[2015-11-06 18:58:02] Run complete: 01:10:49 elapsed
TopHat v2.0.13
/sw/packages/bowtie2/2.2.5-1/bin/bowtie2-align-s version 2.2.5
64-bit
Built on localhost.localdomain
Thu Mar  5 18:34:52 EST 2015
Compiler: gcc version 4.1.2 20080704 (Red Hat 4.1.2-54)
Options: -O3 -m64 -msse2  -funroll-loops -g3 -DPOPCNT_CAPABILITY
Sizeof {int, long, long long, void*, size_t, off_t}: {4, 8, 8, 8, 8, 8}


########################################################################
PBS Epilogue:	Fri Nov  6 18:58:07 EST 2015
Job ID:		232835.login00.halcyon.local
Limits:		neednodes=1:ppn=4,nodes=1:ppn=4,vmem=4000mb,walltime=08:00:00
Resources:	cput=04:11:22,mem=2989304kb,vmem=3566136kb,walltime=01:10:51
Account:	
Exit Value:	0
########################################################################
compute04: ignoring orphans (shared node)...27460 27592 27633 28397 28399 28401 
