gene	logFC.at2hours	PValue.at2hours	fdr.at2hours	logFC.at4hours	PValue.at4hours	fdr.at4hours	logFC.at8hours	PValue.at8hours	fdr.at8hours	logFC.GLM	PValue.GLM	fdr.GLM	logFC.antail6	fdr.antail6	w.rpkm	m.rpkm	C2.ave	C2.sd	T2.ave	T2.sd	C4.ave	C4.sd	T4.ave	T4.sd	C8.ave	C8.sd	T8.ave	T8.sd	symbol	desc
AT1G01120	-0.288016322629286	9.15861318322736e-08	4.32602356496029e-05	-0.29016668961505	1.34424639476869e-11	4.12502396489076e-09	-0.189121415953805	0.000624680741967257	0.0261224022097921	-0.258037693887606	1.50565407181181e-10	2.42906487017185e-08	0.85	4.55986740340095e-05	42.44	76.42	31.9138599545353	4.05465664614119	25.3065279516781	1.45090442393717	31.0952701511444	2.0387908445568	25.1875030328226	1.4357698821945	26.8749316399836	2.10579145226797	24.4110497604668	0.170440091260174	KCS1	3-ketoacyl-CoA synthase 1
AT1G02065	-0.372549658821615	6.17918769665418e-12	9.95794271397283e-09	-0.595596050119667	2.1814431188973e-44	5.95773930202043e-41	-0.538825229898673	1.13300162134049e-18	8.116763983619e-16	-0.502913046281425	1.58085843370154e-40	5.61086179581518e-37	0.5	5.11061945728793e-06	43.68	61.87	35.6828752771383	2.78936562894609	27.3633815938759	2.81000630118515	41.4514600449705	3.94294300148808	27.2744005719708	2.61840865111777	38.6737093589643	3.27834154949603	26.2338662716959	1.73303139440026	SPL8	squamosa promoter binding protein-like 8
AT1G05680	0.743264363033955	4.78580101858816e-21	3.27779511763103e-17	0.330874665490536	1.88923102910215e-07	2.61912632669081e-05	0.613312855766219	5.17733282366369e-21	5.03366183780702e-18	0.551350400619368	6.33377194195907e-16	2.81001750812478e-13	-0.34	0.022529344440493	16.55	13.1	6.76836506904882	0.864882288156211	11.4484717264352	1.79758344592101	16.9219611959366	2.57599347490968	19.9944792695043	1.824424951231	12.2134973808402	1.22745862875679	17.6737334836616	1.15115780285282	UGT74E2	Uridine diphosphate glycosyltransferase 74E2
AT1G12320	0.5304007616112	1.50460018474279e-14	4.12200266612134e-11	0.640041918978016	5.27204276062029e-28	5.33276888278892e-25	0.73449626581706	8.52285130597778e-21	7.58892186179248e-18	0.630192742396859	3.50993422355562e-46	1.99322144687277e-42	-1.56	2.32580438785608e-30	22.42	7.58	26.1966905625801	1.39178420608061	37.7485335795376	3.29565484153405	22.2524751515927	1.15550092891807	34.0227504184584	0.711193191880709	22.2239017356392	2.71374995418123	37.4074506320381	2.41302467935571	AT1G12320	Protein of unknown function (DUF1442)
AT1G12780	0.395131617336045	1.61767094666825e-10	2.01444151158743e-07	0.317543632233865	8.53081632928056e-16	4.48048316863426e-13	0.260401150692994	5.77901308829295e-07	6.75202031341627e-05	0.324092245748164	5.2449980677118e-18	3.03931581907365e-15	-1.42	9.57164040698135e-12	113.3	42.41	106.109510384293	10.8578148995306	139.716875737283	15.6825241689569	82.8546698974736	3.34130960652036	105.591843644712	7.52816378669946	89.4006764313494	4.72733033118146	108.16633628066	6.1180399251491	UGE1|ATUGE1	UDP-D-glucose/UDP-D-galactose 4-epimerase 1
AT1G13245	0.938036377800892	2.0303447569758e-10	2.41840543313517e-07	0.818562457002352	8.60502660620087e-08	1.30562156467751e-05	0.635580300523749	0.00376426746932304	0.104887055596091	0.829619039553453	1.48336868458981e-17	8.09976354427751e-15	1.13	1.71521183897046e-06	7.24	15.88	4.30568722516967	0.773163837474088	8.13499096575469	1.76792475726417	3.54151366559329	0.195112444961648	6.43405075273419	0.508554804625781	2.37560957195425	0.285843911291919	3.5784520570845	1.10313880224127	RTFL17|DVL4	ROTUNDIFOLIA like 17
AT1G13710	-0.312314259837724	2.77716115349763e-06	0.000698010155607533	-0.278871930420007	3.35296349279237e-08	5.45076106855074e-06	-0.192703686813095	0.000966785070618556	0.0364526176972977	-0.260972579747516	1.447558076182e-12	3.31467451734771e-10	0.56	5.29844600696192e-06	14.87	21.98	23.0246890909109	3.53671336132951	18.560679107489	1.51084101901588	25.6591580883966	1.07285297770081	20.8134947623725	0.386176369537604	23.7628092581004	2.62361054138904	20.512038531875	1.73077192287364	CYP78A5|KLU	cytochrome P450, family 78, subfamily A, polypeptide 5
AT1G21460	0.327335418437197	3.96073870661157e-08	2.26059161679855e-05	0.355675983884954	1.25421066225172e-13	4.89339248525094e-11	0.449616595834781	1.81627915694883e-18	1.23611418724045e-15	0.376871047665634	2.24124345771525e-26	3.34936140728246e-23	0.51	4.56931280295703e-06	144.02	204.48	153.871524748979	23.159811051609	190.753617364925	19.8124951704558	180.857190181734	14.6749158698055	227.645397626066	15.6195894420661	167.159103655764	13.0751736071059	226.324202702499	12.6945158454242	AT1G21460	Nodulin MtN3 family protein
AT1G23390	0.290592820443704	1.47148213003403e-07	6.60864334990363e-05	0.375957219588148	1.45141653639695e-10	3.9247165371819e-08	0.113407830379385	0.192558483924661	0.78546170447236	0.262764183049881	2.66556082811776e-06	0.000157563685281968	0.07	0.886583454353279	40.71	42.66	24.1549883134539	4.76111496227744	30.2983918277488	6.3946827590034	17.6598555345732	1.46476755780841	24.459351558596	2.61290183551368	16.2541397953223	1.62411585023745	18.0126991339097	1.94598119002596	AT1G23390	Kelch repeat-containing F-box family protein
AT1G25440	0.256495778394789	3.36943242441482e-06	0.000775705636128305	0.283825728118953	4.9297812882672e-10	1.1707587544684e-07	0.201646201250877	0.000695606267314517	0.0281913512970174	0.247842075116354	6.78974490951251e-14	2.24172112744998e-11	1.23	2.21035821529258e-30	54.99	129.22	39.0340918658406	3.39026005666948	45.303112089457	1.73429728001074	46.5515726405019	1.58678306087782	58.6906105104044	1.60006311906452	40.343528461205	3.73665874805981	47.4629593824717	3.13328096722735	AT1G25440	B-box type zinc finger protein with CCT domain
AT1G25530	0.507694270159226	5.87525083570447e-13	1.07305581263306e-09	0.807097416366466	1.2392685089914e-35	1.53843919313928e-32	0.986106560796938	4.12886357013636e-50	2.24800105939644e-46	0.763754253673117	1.49591711441885e-37	3.8613700497099e-34	-0.26	0.12142137278045	9.5	7.92	12.7201521805498	0.942373890776221	17.3511779955078	0.560522818095318	11.755175135705	1.46494880556306	20.2573046002866	0.858512744999458	10.1776483722634	0.111038479696913	20.6479872034283	1.51938614570724	AT1G25530	Transmembrane amino acid transporter family protein
AT1G26800	0.794276935846887	4.34507425771565e-09	3.40107583898223e-06	0.854378020154707	7.44614870736192e-09	1.46303429745871e-06	0.31615853964529	0.0698960117196806	0.58916281275262	0.673711076255381	4.46653561427503e-09	5.24061207569112e-07	0.8	0.018405922562297	3.52	6.15	2.43673373174455	0.537234308321736	4.259530919371	1.3582626665408	1.87446046358213	0.496037333272114	3.77190623594191	0.571886534318475	1.50496158970427	0.379854825367546	1.95577296188992	0.309662799789441	AT1G26800	RING/U-box superfamily protein
AT1G28070	0.497688694149489	3.54450222481369e-06	0.000789473032121917	0.616880484882639	6.7444403719874e-11	1.87956541836069e-08	0.534370434028486	1.14784872306605e-08	1.94086247130603e-06	0.548290251812572	1.31923495672429e-20	1.01238803678998e-17	-0.06	0.776729238025783	5.22	4.99	8.37268246949418	1.68032396063219	11.374768670457	2.15660175728111	9.26509605288777	0.89774984630603	14.4342452036288	0.360187171311536	10.9522738296274	0.64410655190117	16.1819352353066	0.569009814155581	AT1G28070	unknown protein; BEST Arabidopsis thaliana protein match is: unknown protein (TAIR:AT2G33510.1); Has 85 Blast hits to 77 proteins in 15 species: Archae - 0; Bacteria - 0; Metazoa - 0; Fungi - 0; Plants - 85; Viruses - 0; Other Eukaryotes - 0 (source: NCBI BLink).
AT1G28330	0.53239091119927	2.33448342717409e-06	0.000597715027765061	1.36218645179792	2.76398117185298e-94	1.88717724461192e-90	0.840729926325209	1.51267569629997e-20	1.28686157751169e-17	0.908809824439647	1.53614357345962e-14	5.31917812497712e-12	-0.98	0.0688653689369093	55.57	28.19	72.3138304891237	30.400450556018	110.020691040856	42.3741755241111	30.6807962915356	4.13448643515366	84.9610193277536	13.4976408761782	86.7149137969525	13.9999469452887	156.663585056855	12.279998257946	DRM1|DYL1	dormancy-associated protein-like 1
AT1G48660	0.685674176102403	1.49746959969753e-06	0.00042293481601354	1.16426451806132	2.70818178725204e-25	2.24130766035274e-22	1.29178660836044	9.88549499116574e-29	1.92223450103218e-25	1.07951587030433	4.59105118973176e-39	1.30358307481244e-35	-2.38	1.04234883968743e-19	0.86	0.16	1.75118942335371	0.178166242103254	2.94671254809173	0.792014058243205	2.28077129553381	0.523848886946015	4.99776714271906	1.60889567274847	2.6155651619462	0.472643826940811	6.07037009373305	0.581712060291925	AT1G48660	Auxin-responsive GH3 family protein
AT1G53160	-0.226710642372882	4.43094843750093e-06	0.000911006393384421	-0.305666362438535	2.26668146423943e-12	7.6426342555362e-10	-0.433615097037143	4.5454112148338e-12	1.32872572384538e-09	-0.322794139654384	1.24524234298587e-14	4.53300142137701e-12	0.58	1.14575149131151e-10	76.89	114.58	79.5273576267928	10.2365519270021	64.1097961854059	2.97598518127772	103.461778014993	5.04620865099786	82.4353805966993	1.67882250318574	91.4503888283832	3.98316626153764	69.8535909039691	8.19088016418951	SPL4	squamosa promoter binding protein-like 4
AT1G55850	0.305832544626054	6.70812969151507e-08	3.46045970864398e-05	0.523723400911967	1.57964520999659e-30	1.72566761320868e-27	0.507607999620493	1.0866895705288e-26	1.6434972321392e-23	0.442312091258347	2.47217566323355e-40	7.79943953131705e-37	1	7.70303334902199e-29	14.98	29.98	30.5697066223292	2.14705493541476	38.3137339830883	2.28061752308591	17.5100998280756	0.990149050556954	25.1123119824209	1.07624749333486	29.9296199327402	2.47912388760034	41.5210361658955	1.91365800232836	CSLE1|ATCSLE1	cellulose synthase like E1
AT1G64450	0.383596883376665	3.25527374297067e-13	6.37010567588746e-10	0.441868362520874	1.17151957385219e-15	6.03686246820323e-13	0.475408302575914	3.68611404330294e-16	1.96758985491835e-13	0.433292506076356	1.82689232383694e-42	8.64546344050433e-39	0.19	0.0672672406182199	17.52	20	34.4143721699076	2.16287662300202	44.9867778265939	2.41364737693504	32.7464503542208	0.156614661778633	42.4396824717597	0.741781332985467	36.6139241759007	1.95191183860496	49.8422285536094	1.63754532068547	AT1G64450	Glycine-rich protein family
AT1G66180	0.345387574292833	1.55403697021563e-10	2.01444151158743e-07	0.346786212266799	5.3219569771279e-14	2.16937264182597e-11	0.249356722710456	2.10699724991993e-06	0.000207071430088701	0.315447594356737	6.31739698566425e-25	8.15346227322504e-22	-0.18	0.450748222768831	21.41	18.9	27.9256619627292	2.24506933516301	35.4317617947053	1.31940735298613	30.0456171620475	0.807412570424584	38.3452274040033	3.03575490073155	27.8283486964243	1.45465495652775	32.9693361404578	1.60076482093612	AT1G66180	Eukaryotic aspartyl protease family protein
AT1G72180	-0.271686431352674	9.30080673118421e-07	0.000292879196790256	-0.294478995996816	1.36584189349605e-11	4.14472310591895e-09	-0.357876142269224	2.20343663426279e-13	8.10596695872106e-11	-0.307766699667714	2.37991782704263e-21	1.98751137591319e-18	-0.23	0.286382990355889	26.65	22.79	22.1151339983925	1.43245190038356	18.703763597392	0.208672824042058	24.4058844059576	0.821448640800736	20.353603233338	1.5734153699057	19.9723104857836	0.83756472119831	15.6438080080525	0.663107340257769	AT1G72180	Leucine-rich receptor-like protein kinase family protein
AT1G78700	0.631999480639589	2.29814048404809e-22	2.09866189003271e-18	0.726634604768588	6.99386144745877e-40	1.36435249993962e-36	0.913885509559609	2.15107871129611e-56	2.9279407878807e-52	0.756773322816196	5.58882831734697e-89	7.9344595621375e-85	-0.14	0.198731792711359	13.81	12.54	16.3374625199719	0.362804722506623	25.8417453317222	2.05358401842394	14.8182448386371	0.44123620322481	24.3850488784765	0.138668530232795	15.3630818431571	0.0590784710937848	28.4430243190329	1.34231272274087	BEH4	BES1/BZR1 homolog 4
AT1G78710	0.628557676819641	1.48426136415734e-09	1.45262547655796e-06	0.588197231479224	5.76411706545088e-09	1.16610223092244e-06	0.814713511664367	1.149695766542e-19	8.94233367216366e-17	0.679623838264635	3.64994870823864e-33	8.63638696847733e-30	-0.22	0.145673987830864	4.96	4.25	7.33463297818693	0.672822409167086	11.2820582010983	1.2857504566039	6.54118646334133	0.747153076398188	9.72436292279018	0.633188278219751	6.84632708556649	0.472521769030367	11.79557082521	0.957306479940616	TBL42	TRICHOME BIREFRINGENCE-LIKE 42
AT1G78850	0.396281625970554	1.01003650990876e-09	1.10683840901842e-06	0.627531543348792	4.0843358471485e-08	6.48530792566701e-06	0.57305791619592	0.00855175971909895	0.186243643866425	0.528206653304771	1.07308622871097e-08	1.15413675674316e-06	0.59	0.123540242547611	2.57	3.88	27.4784155689163	2.7599444971537	34.0794000858593	6.99698545758098	9.50092178599203	1.15399558880318	16.0729151067801	1.83830733018253	2.24256339046671	0.786267550864941	3.19925307070301	1.12932527904994	AT1G78850	D-mannose binding lectin protein with Apple-like carbohydrate-binding domain
AT1G80920	0.347871318880681	3.82064774705658e-08	2.227031184646e-05	0.745625866662057	1.47608998648973e-38	2.51959335131382e-35	0.337292322301353	2.84864437134572e-07	3.62376849164227e-05	0.474348255961638	4.30171827590568e-11	7.73056890671304e-09	-0.16	0.804421381033079	132.22	118.28	102.447440576467	25.8539486151003	133.214467278315	33.2281700354149	38.1753533393637	5.3255794507667	70.3230741252802	11.7144977848486	36.8295107487105	3.97942729100094	48.3798403496688	4.83833586733295	J8	Chaperone DnaJ-domain superfamily protein
AT2G15890	0.391709595727449	6.82087984621021e-08	3.46045970864398e-05	0.837425421443989	8.5963583618731e-15	4.11886216177397e-12	0.144307561860741	0.0200109944987929	0.319506922721783	0.460625961096053	9.36958473933927e-07	6.31923964581471e-05	0.54	0.342978423259954	4.59	6.68	12.2029343587103	2.8241192371972	16.5661789170847	4.59957741410175	15.412216012556	2.13229587269528	31.3162960725996	6.16716688227746	75.9651157930637	5.3850507570305	85.4442586145022	6.01864783990229	MEE14	maternal effect embryo arrest 14
AT2G20670	0.698164787927009	5.92746698941183e-19	3.24777771283853e-15	1.48293827867156	3.38275917930955e-95	3.0795511982041e-91	1.11892702649433	8.25722997270019e-09	1.44093956119755e-06	1.09201882084111	9.83909614052613e-19	6.20825101809109e-16	0.24	0.461418940649999	80.39	95.27	19.2974388487684	5.46908362325237	32.5698794819346	10.912982888854	7.80348224558751	1.86846112968147	24.0039459084516	6.67235226965598	4.48421931910776	1.06487144620122	10.7097219177457	2.73518444012271	AT2G20670	Protein of unknown function (DUF506)
AT2G25900	0.388104726603057	3.5884649569571e-07	0.000132142408918245	0.836430881859067	8.15231310567679e-48	2.78309779036423e-44	0.453247367322076	1.05816820586674e-05	0.000861960004490549	0.556432539565886	2.53092131345983e-10	3.88448539320964e-08	0.41	0.306450637314639	62.27	83.01	39.8290264344411	14.4719791474776	51.237615488798	11.845526098709	22.7337818493239	3.51997188126928	43.774896366885	9.06406960091969	17.4506427064626	2.58788254155509	24.9517087813265	3.1657711235427	ATTZF1|ATCTH	Zinc finger C-x8-C-x5-C-x3-H type family protein
AT2G27190	0.412816027141342	1.91250202466558e-14	4.76317322433984e-11	0.462197607866822	7.97995119938345e-22	5.44851118015903e-19	0.623104927514779	6.17571574524051e-34	1.86801677480758e-30	0.499547777518506	1.84777598503624e-59	1.74885837730397e-55	-0.21	0.0179038698432297	19.85	17.2	20.8498899035671	0.360577035480631	27.4936978953007	0.808850138975862	22.6125243540104	0.595046408039967	31.5444710971107	1.36040440731114	22.072679186297	0.339055549274239	33.6804165826355	0.953006439850698	ATPAP12|ATPAP1|PAP1|PAP12	purple acid phosphatase 12
AT2G32280	0.603530979986171	2.03482456219989e-08	1.32728699300067e-05	0.841459823589106	9.92071445383422e-22	6.60840566947967e-19	0.702693064767087	6.09485700331738e-17	3.38612841227162e-14	0.716517120610555	9.24793980905744e-31	1.87561430670269e-27	0.23	0.260538518858157	4.99	5.85	7.21221566463419	1.77079875463054	10.5500296198853	1.40171441915271	10.938649359702	0.533454363547982	18.3117716189805	0.239250065177646	24.7286869404855	4.037548959124	39.0291925561406	0.755151897136254	AT2G32280	Protein of unknown function (DUF1218)
AT2G32710	0.261153286867029	5.05913296056626e-06	0.000990000047054809	0.292103861137775	9.52028609912152e-08	1.4208116593066e-05	0.326013175202687	1.05968049066706e-07	1.51034984279736e-05	0.29129111383429	8.95662814009687e-20	6.05510712880739e-17	0.14	0.569104786413373	22.52	24.78	23.1080447659325	1.40876150956785	27.9715337596269	0.569380884864053	18.4876386152077	0.250449146727555	22.6823577365054	0.722976520280087	17.2046109414483	0.8511237563407	20.9308996069162	0.141830661201119	ICK7|KRP4|ACK2	Cyclin-dependent kinase inhibitor family protein
AT2G37170	-0.519040493909453	3.14989601656965e-09	2.53807503735124e-06	-0.499495974506401	1.33984324475115e-08	2.45586972197307e-06	-0.320524285453434	0.0166972810833276	0.283385338485927	-0.463679051890925	2.85387301642346e-09	3.50791646875877e-07	0.83	5.18275138651182e-11	16.06	28.64	13.7381287486347	3.64426049278585	9.2844614585427	1.61902979878031	15.3943372977542	1.86403565530284	11.1380866874176	1.64928755795686	5.41501632495441	0.255225275942067	4.47668929378945	0.767156255266941	PIP2;2|PIP2B	plasma membrane intrinsic protein 2
AT2G38230	0.279512218101202	1.49682378718455e-06	0.00042293481601354	0.237850349731102	1.0216171515678e-06	0.000112053759142442	0.182941547612362	0.00771807981641069	0.173644038712519	0.233529103656565	2.47432280644622e-07	1.93542484204502e-05	0.82	1.47595522620002e-12	73.3	129.4	45.0411515294054	6.4204620562595	55.6746521401617	8.33884109521561	34.7683864890343	0.295487596554942	41.3158794014161	1.08828868144163	30.068220531718	4.45887646645965	35.4401909207612	3.25512044485543	ATPDX1.1|PDX1.1	pyridoxine biosynthesis 1.1
AT2G38750	-0.562167167474994	5.68608102020394e-08	2.99568991595206e-05	-0.347336150659763	1.76394332035366e-06	0.000180430921431381	-0.360984481870232	3.55004035543812e-06	0.000334403974380941	-0.419205284971153	2.99326084804082e-12	6.53774219379008e-10	1.01	1.25600055016059e-13	8.91	17.89	9.72893864409174	1.74090300307657	6.48180738001619	0.235570324492343	12.435670364852	1.86969967688216	9.3484013090329	0.471767990441803	15.0384063001014	0.808572896697485	12.2317718297505	0.44824098924956	ANNAT4	annexin 4
AT2G44130	0.34604959088722	3.1303511001623e-09	2.53807503735124e-06	0.374986670511649	2.39602600697825e-11	6.89405423158927e-09	0.106722126751946	0.0561492681166027	0.541080186172841	0.274664043039794	2.82239939411388e-09	3.48431340854215e-07	0.13	0.64328970508007	32.22	35.14	20.8403841994805	2.34176339794093	26.1151868920799	2.95510373344782	21.019186530933	1.57520216398812	27.87030625651	2.0622597491648	24.9449467433774	1.95377778349484	27.3433102290311	1.43449783622191	AT2G44130	Galactose oxidase/kelch repeat superfamily protein
AT2G44940	-0.561650707449213	5.97775606178931e-16	2.04708256335975e-12	-0.706044724882231	2.90729667187359e-27	2.73797170363929e-24	-0.366487493695477	1.30046566139989e-06	0.000136689485329302	-0.547939602784063	2.79680630730144e-22	2.40643994816718e-19	0.74	2.00986635256246e-11	9.01	15.06	23.7619719008486	3.58761367807149	15.7779682497377	1.96646871077871	24.3139113224719	2.20028244436153	14.668642984251	2.21304558664361	16.6428422922961	0.891662787754424	13.0317868098991	0.614568103180763	AT2G44940	Integrase-type DNA-binding superfamily protein
AT2G45900	0.408795979833114	4.48919050616502e-06	0.000911006393384421	0.401783951153712	3.27931930958316e-08	5.36296345293567e-06	0.538254555747761	3.28859760006665e-10	7.58690614123852e-08	0.446888339363406	1.19428773077546e-20	9.41961272989954e-18	0.71	0.000531558081294007	4.74	7.77	6.49547819922046	0.876201772306187	8.60675876154213	0.500351405656793	6.58775518254312	0.403200520347047	8.93590301552523	0.424097727659518	5.34240442224058	0.409525069355645	8.03263619306647	0.460551029035177	AT2G45900	Phosphatidylinositol N-acetyglucosaminlytransferase subunit P-related
AT3G02550	0.588632082724999	1.03552299645058e-18	4.72819800179335e-15	0.752420292636449	8.54673345881193e-47	2.59355374992903e-43	0.505511937308749	1.70702651876572e-10	4.22458026548719e-08	0.612016333487553	1.45209097839752e-19	9.58852819549282e-17	0.07	0.777055536323893	36.16	37.86	19.2006832221314	3.44342913804116	28.7019247495608	4.88432363061881	26.4434345999964	4.4655584103523	45.907452985436	13.4542700307581	23.9178898864204	2.20816913396797	34.5807633217376	5.15197592682603	LBD41	LOB domain-containing protein 41
AT3G09450	-0.528213230507321	1.83755440417328e-08	1.25854101141828e-05	-0.901899782066311	3.03509426296297e-15	1.5071174439233e-12	-0.421161891667069	0.38658103385778	0.872373262344456	-0.675325212108601	5.53879310091784e-15	2.15436289462275e-12	1.75	6.63874401848164e-39	5.34	17.94	7.01928526613241	1.30253736527256	5.05896625370472	0.901965685735951	3.27238499545879	0.516909575004399	1.78695929978122	0.424849799083073	0.102273547125181	0.0556533130805727	0.0986977640262963	0.00383439402693339	AT3G09450	CONTAINS InterPro DOMAIN/s: Fusaric acid resistance protein, conserved region (InterPro:IPR006726); BEST Arabidopsis thaliana protein match is: unknown protein (TAIR:AT2G28780.1); Has 503 Blast hits to 494 proteins in 215 species: Archae - 0; Bacteria - 423; Metazoa - 0; Fungi - 0; Plants - 65; Viruses - 0; Other Eukaryotes - 15 (source: NCBI BLink).
AT3G10020	0.446379117961193	1.35909303142556e-06	0.000400362502031555	0.725881797427597	1.01322546646423e-40	2.30601672621704e-37	0.240605270661958	0.0274721760033538	0.377524001685664	0.467778211831797	2.23809004870268e-07	1.78838521866349e-05	-0.2	0.703511920076712	119.57	103.77	104.713869070859	36.8156569203267	148.425592008307	57.3658189357005	69.0745908105606	9.25184329591704	124.840907965702	20.4818366938686	90.4472680546274	19.2517208839201	109.540645667963	10.6440060157444	AT3G10020	unknown protein; FUNCTIONS IN: molecular_function unknown; INVOLVED IN: response to oxidative stress, anaerobic respiration; LOCATED IN: cellular_component unknown; EXPRESSED IN: 23 plant structures; EXPRESSED DURING: 13 growth stages; Has 47 Blast hits to 47 proteins in 12 species: Archae - 0; Bacteria - 0; Metazoa - 1; Fungi - 0; Plants - 46; Viruses - 0; Other Eukaryotes - 0 (source: NCBI BLink).
AT3G14395	-0.421530529021167	7.4272153787721e-07	0.000245151798213061	-0.453621458440109	7.6130069660065e-13	2.73577412169215e-10	-0.396564810545726	1.59394287903545e-06	0.000163743045267856	-0.423209665097767	5.47770291499017e-09	6.34832230890739e-07	0.12	0.68682255210797	65.76	71.33	47.5323167557104	10.1086406352318	30.9493730674	5.55404189292346	62.3194957885665	2.76242583490439	44.7000415343268	6.90405331388227	24.6685605487907	1.78549234065551	18.9962112549072	1.76119678970164	AT3G14395	unknown protein; Has 4 Blast hits to 4 proteins in 2 species: Archae - 0; Bacteria - 0; Metazoa - 0; Fungi - 0; Plants - 4; Viruses - 0; Other Eukaryotes - 0 (source: NCBI BLink).
AT3G18280	0.395222875698736	1.50411656232101e-07	6.6462544098946e-05	0.679779711293811	3.0397296446658e-22	2.12866811090943e-19	0.933751018373515	3.22782331141943e-32	8.78710340067712e-29	0.657574399577127	1.41596164723837e-23	1.38637293143746e-20	1.68	5.11021755495531e-29	9.03	28.82	24.5987481798479	2.67488266946915	31.3753498648016	3.41171145854045	21.8356198232359	2.21284481156172	33.2304186575724	3.42941914638499	16.8639706552843	1.55366605128362	31.2871342230777	4.44713755039158	AT3G18280	Bifunctional inhibitor/lipid-transfer protein/seed storage 2S albumin superfamily protein
AT3G23580	0.256067828581306	4.63266839107345e-06	0.000933210170895942	0.480615998449952	1.26835270518789e-25	1.08249939785583e-22	0.499563410359493	3.98000190261528e-21	4.01287377018132e-18	0.414340937565666	1.37219079996974e-30	2.59746570495605e-27	0.1	0.335632401210391	27.64	29.52	24.5744950663537	2.48830266880675	28.3282410683686	2.08668311542376	28.483566426747	2.25083283588558	39.0602272047013	3.45668735674732	28.2630694253152	2.23575908982676	39.4976101977357	1.73077413201008	RNR2|RNR2A	ribonucleotide reductase 2A
AT3G23730	0.301908819562842	3.27560017426926e-06	0.000760494426900684	0.267898623053995	6.93868347687737e-08	1.06462013728651e-05	0.488947549996412	2.29464064393015e-17	1.41970459658433e-14	0.349343724950952	1.04465130728121e-10	1.73460989584459e-08	-0.78	0.0253168125441321	199.85	116.05	59.270312020106	12.2990586100779	70.0961701843327	11.9586058871012	88.5647228486886	4.78072782139401	106.182956396075	17.7764863599715	78.5866394718227	6.3514092701142	112.170841111039	10.2808283004776	XTH16	xyloglucan endotransglucosylase/hydrolase 16
AT3G26740	0.282346499359023	5.72313610162285e-07	0.000195988795800075	0.337086821253415	1.8135259291041e-12	6.19115083122025e-10	0.133365769462706	0.00627662379288965	0.151613602053092	0.249560113518693	2.9549315879886e-11	5.51988996772028e-09	2.23	1.59386075676125e-27	29.97	140.62	89.0903983089872	7.88657978981429	112.689064203741	11.3787115153681	152.830690557997	11.4609042149074	198.265559350266	8.31188963810138	329.442562528091	9.40865985428306	365.019004867667	18.8855728441482	CCL	CCR-like
AT3G47800	0.402661296895473	2.21389308095152e-07	9.05250967846982e-05	0.384689902761929	2.50175344917377e-08	4.24381294722888e-06	0.229064401521851	0.0304729746274343	0.399475070457302	0.340886554135321	6.84999507634212e-10	9.48774439988577e-08	-0.78	8.89788188141427e-09	18.34	10.7	18.8382538579907	2.73022814561078	24.968398268526	5.34152387664591	13.0612467824525	1.01695155340228	17.3939188917678	3.88648962060488	16.8111457673287	3.84643221831968	19.9345054180548	2.60753972853361	AT3G47800	Galactose mutarotase-like superfamily protein
AT3G52500	-0.301588498455678	5.93014785853846e-09	4.51284252034777e-06	-0.357105571935531	7.88401497015388e-19	5.00744960115983e-16	-0.323193798174686	5.9215309597401e-11	1.50655922726173e-08	-0.326918825049957	3.81768232179567e-42	1.54856102635809e-38	0.6	3.19572129921829e-13	52.53	79.77	116.767036544196	2.04495690328102	95.239366125655	1.81563785386552	92.0554485521591	1.80618301752742	70.2750308163076	0.547876154585813	103.991701060812	3.98462962318645	82.0231489959912	2.79444188828422	AT3G52500	Eukaryotic aspartyl protease family protein
AT3G57010	0.458416264887426	3.3485469918893e-07	0.000125666840259999	0.424318641865918	8.90920081286713e-07	0.000100962316763574	0.435724293065202	7.64976869931918e-06	0.000654873123589831	0.439093964361522	2.71630927201578e-20	2.02965488077937e-17	-0.83	3.9014986048185e-06	5.58	3.13	5.91863300094612	0.820173102605247	7.96720669972874	0.619936547284676	6.81711051855376	0.965665384666668	9.38230172514094	0.586198579582144	6.99109765189036	0.835465345268192	9.57993682046834	0.600537698092066	AT3G57010	Calcium-dependent phosphotriesterase superfamily protein
AT3G59940	0.405295514204928	4.16582873064127e-15	1.2680782656072e-11	0.923802005898298	3.09189403963816e-89	1.68885436233115e-85	0.419336421206323	3.54606786595913e-05	0.00238357050654334	0.579152887984917	7.59293638458242e-14	2.44992995117992e-11	0.86	0.000959176607629965	43.45	78.93	32.2773785775837	5.831885770324	42.7690157412103	7.30899965186513	21.5920375908414	4.32146935701738	44.3215219909835	7.1409567744897	16.5655753061248	2.10889742856337	23.5083407352778	3.05584029750054	AT3G59940	Galactose oxidase/kelch repeat superfamily protein
AT4G03210	0.28312516767589	3.98722678194041e-06	0.000853391132172184	0.344487499677837	5.31841294642914e-13	1.93668234639902e-10	0.400672889255859	5.4222595855544e-15	2.63589594102763e-12	0.341630744418742	1.39583461501104e-23	1.38637293143746e-20	-0.23	0.372915920317599	717.05	609.77	612.830427091383	76.7374961393265	722.853989850157	31.3312332950014	889.796635482572	13.9339636648459	1118.95851511746	92.0887860312256	1020.33639960656	34.1177269367917	1374.41391974117	81.8554183918512	XTH9	xyloglucan endotransglucosylase/hydrolase 9
AT4G03400	-0.25642195794655	3.22640837382051e-06	0.000756375916928503	-0.235561135100743	9.89478234616336e-06	0.000809091019928346	-0.421592716780062	3.76241209751165e-09	7.21296792468729e-07	-0.292551956606479	1.94004563347984e-13	5.34812191427443e-11	0.07	0.798116601454998	22.01	23.06	28.9043865241826	2.28216932783676	23.3677723022709	2.87913005975312	25.7975135602224	0.780666948986962	21.4188165633396	2.78625057143965	11.7684572241198	0.59681407248332	8.79974171489124	1.01481455497629	DFL2|GH3-10	Auxin-responsive GH3 family protein
AT4G05070	0.370908012152559	4.93167485976222e-07	0.000175465148646813	0.678480008540489	2.00989891906763e-22	1.44453550996463e-19	0.432770332744096	8.18014712482187e-05	0.00491536883743705	0.487492694502272	5.85355392203237e-10	8.18747832818655e-08	0.43	0.172778005317817	37.61	50.73	33.921301819195	9.47989086006164	41.4268311142668	9.23987063738443	28.2647769489875	4.50145154592006	48.7526944843113	8.02638677005443	21.679979925416	3.21990963592931	30.2762593364221	4.96668619392327	AT4G05070	Wound-responsive family protein
AT4G14270	0.338391379888421	1.48465153101266e-09	1.45262547655796e-06	0.40932651855495	6.06936217869633e-23	4.60445417951043e-20	0.223783838771032	0.000980869302352807	0.0367932612003297	0.322556804170433	2.31245100754184e-15	9.11940748724208e-13	-0.14	0.645279754342425	50.88	46.1	85.9320592414572	12.9349601344869	105.381429393864	14.7376982448673	98.6290490574456	6.44843109609753	135.310438448091	6.99901257118276	154.217894528955	13.5067241567675	185.226343824946	13.8607542202663	AT4G14270	Protein containing PAM2 motif which mediates interaction with the PABC domain of polyadenyl binding proteins.
AT4G17870	0.474281160313765	2.43299544567068e-08	1.5501010053394e-05	0.455767809188534	4.30099959003545e-10	1.04666947750408e-07	0.398504812354791	0.000241356849365535	0.0118173696228021	0.439488314428007	3.45257165359972e-11	6.3657350345656e-09	0.39	0.0341654791383879	45.55	59.68	28.6655676091098	3.04028126472893	41.904704988233	6.66873486295661	16.5233731633381	1.29615752449554	23.084347257212	3.19288140920557	16.9837268755417	3.39263285319509	21.8461097521979	1.17447368344083	RCAR11|PYR1	Polyketide cyclase/dehydrase and lipid transport superfamily protein
AT4G33420	1.32164080961872	2.71580988381365e-06	0.000688910440527397	1.89545469860662	2.63687032285519e-07	3.52560903286841e-05	1.59055237249375	0.00105754040719823	0.0390100575950643	1.54420013109906	7.2868033024001e-13	1.78363356007197e-10	1.09	3.91715804676694e-06	4.53	9.65	0.360939981553102	0.0963393039901272	0.943622893669658	0.305538473953514	0.182390764108216	0.0969608227240326	0.648367056809646	0.49877690482774	0.13863262502101	0.105842309942256	0.497164811013469	0.0580619424341891	AT4G33420	Peroxidase superfamily protein
AT4G35770	1.00698690135479	1.09061799125507e-07	5.06416448956337e-05	1.37860063292855	4.78558738017497e-24	3.84409343941054e-21	1.35746022149717	5.66681530602828e-30	1.18667471596929e-26	1.25887851819951	9.2646727458613e-21	7.51603194131388e-18	0.23	0.5990404812826	52.86	62.1	21.1936870594248	8.07984851152941	47.8387788445492	26.7675268030485	7.64699328182779	1.8977422510794	22.9222198422635	9.07418149240846	4.48433160003391	0.688987107945642	11.6952355280418	2.44862279282316	SEN1|DIN1|ATSEN1	Rhodanese/Cell cycle control phosphatase superfamily protein
AT4G36040	0.412081428952238	9.54723114893067e-13	1.63472465347565e-09	0.872691691516369	2.92193437513012e-105	3.99004748595894e-101	0.445138072659824	2.97786842346195e-09	5.79046514942176e-07	0.578073545203269	7.8886389244962e-14	2.51674172609152e-11	0.9	0.0108015829916153	116.92	218.91	143.957515178244	31.2592246394333	199.294989745512	41.529452467545	77.5007122797455	10.6241318360767	146.530407202026	21.4564946184656	46.9111481698019	5.84887922399372	64.1436914684342	8.04405538158939	AT4G36040	Chaperone DnaJ-domain superfamily protein
AT5G04230	0.46362036627269	8.62675570643716e-17	3.37626570476503e-13	0.734564129242598	5.74546600376256e-37	8.71746789048663e-34	0.648048813693963	1.53256485795687e-25	2.086050656408e-22	0.606064273918045	1.04044527289102e-58	7.3856007696169e-55	0.01	0.998040763866126	8.91	8.98	15.3842284012797	1.29742855812542	21.7081413235534	1.44795928711477	9.67675880574324	0.793240699189745	15.9727272038374	0.840539679858093	8.01924294410653	0.495583485441954	12.3273623132692	0.519607442363946	PAL3|ATPAL3	phenyl alanine ammonia-lyase 3
AT5G19120	0.505826498474712	1.68976949445495e-09	1.59630776103751e-06	1.08360328615859	3.4453461540996e-29	3.61907110825439e-26	0.343310862268778	0.0128754147853333	0.243070330583307	0.651024000305446	3.57631918752647e-08	3.3908047528018e-06	0.56	0.0476367318603492	99.44	147.09	44.7169841385586	15.8930045140536	66.2330849516503	22.5995645531537	17.5269421007004	0.969677888359527	40.7742678378553	11.9035304053183	18.7949191434607	3.25998986170174	24.6871940053846	5.70962866997578	AT5G19120	Eukaryotic aspartyl protease family protein
AT5G21940	0.738801002911848	9.51814388937367e-23	1.30379534996641e-18	1.50644823213772	6.56829115978094e-127	1.79386599864777e-122	0.833885040515527	5.91809960784266e-10	1.27863829860556e-07	1.02191774728012	3.00354114730319e-16	1.42137578894211e-13	0.4	0.288343496550241	110.84	146.2	36.7142385079026	14.9311549373863	61.3825297901679	20.1770700253458	13.5872927639877	4.24376859363999	43.2358615548313	14.4416262106785	12.842135799956	2.38785071149831	24.8242982171704	4.88389735629171	AT5G21940	unknown protein; BEST Arabidopsis thaliana protein match is: unknown protein (TAIR:AT3G43850.1); Has 30201 Blast hits to 17322 proteins in 780 species: Archae - 12; Bacteria - 1396; Metazoa - 17338; Fungi - 3422; Plants - 5037; Viruses - 0; Other Eukaryotes - 2996 (source: NCBI BLink).
AT5G25280	0.232609062556249	4.7267428334476e-06	0.000941982344864255	0.211627663238903	8.13288297366308e-07	9.37203235838449e-05	0.220460157389148	9.16868541726832e-06	0.000763300070685919	0.222106225368809	3.41684598423039e-13	8.81981135238524e-11	0.97	8.95850749478676e-20	38.08	74.59	29.7427354596755	1.71985623629619	35.0787734385923	2.69683800015892	28.0528219654266	0.602222063879482	32.9094515902902	2.44162030910223	32.2495807103468	2.43750204440961	38.0686135294589	2.62736808170199	AT5G25280	serine-rich protein-related
AT5G50915	-0.492484909600088	3.74800121910994e-06	0.000808505837785321	-0.369290190311325	5.83717900771999e-06	0.000520977764313205	-0.411959576889377	4.30510106237594e-06	0.000395938399395473	-0.423371702195977	5.50642590151398e-16	2.48173741345378e-13	1.49	5.31447674148064e-11	20.89	58.56	8.75749662638746	0.808855781525704	6.31725882167144	0.830054785118986	9.59431330689402	0.726676932640743	7.69785435208027	0.720936842780318	9.96495923767691	0.992462378303748	7.30552447305082	0.254697328308564	AT5G50915	basic helix-loop-helix (bHLH) DNA-binding superfamily protein
AT5G59130	0.73402122744935	8.07876055292948e-30	2.21325724108056e-25	0.870158283378226	1.676398468313e-77	7.63068642801607e-74	1.04419611019111	1.81256015089598e-81	4.93433249878414e-77	0.889983685797767	6.07287042769237e-99	1.72433082923897e-94	1.17	1.10759766527362e-13	2.43	5.45	10.4516232071801	1.46595943874296	17.2248680292156	3.30302902102194	18.2989242405361	1.67461406175689	32.1725967061599	2.07830222512602	16.3740460330877	1.3628951374069	33.1072323384679	1.9246962826967	AT5G59130	Subtilase family protein
AT5G60680	0.400225896284414	1.24330286704108e-13	2.62011733426595e-10	0.67897949435084	2.09528517943995e-40	4.40187181043726e-37	0.493938747037066	1.88981026251575e-09	3.78281652768134e-07	0.523612618606396	1.80938750559141e-23	1.71252496112542e-20	-0.27	0.121853530007728	52.71	43.72	47.784098773383	5.17335731850763	62.7844122428008	7.26371707851429	41.832689945987	3.73629986575971	70.4238018046237	8.88204616941706	38.7885066666248	3.9388345868697	57.061556580284	6.50946190013865	AT5G60680	Protein of unknown function, DUF584
AT5G61440	0.330540473446706	1.59009319546253e-06	0.00043717684552979	0.780276149354894	2.2823240991743e-36	3.28066070908155e-33	0.448072627750769	1.871147187001e-12	5.92305114787539e-10	0.515714417117461	6.02531793915738e-15	2.28110503419246e-12	-0.01	1	55.12	54.92	40.4019617945044	4.22504131456791	52.7139258906072	5.44430749563105	17.579017930292	2.96164878114084	31.8013405703889	7.23300062425115	32.7818325475572	1.74986992925558	46.1988723523495	5.73237276217531	ACHT5	atypical CYS  HIS rich thioredoxin 5
