Oligo	TargetCounts	BackgroundCounts	NormalizationFactor
A	34.24%	34.23%	1.000
C	15.76%	15.77%	0.999
G	15.76%	15.77%	0.999
T	34.24%	34.23%	1.000
AA	13.48%	13.57%	0.994
CA	5.84%	5.76%	1.014
GA	5.66%	5.75%	0.984
TA	9.26%	9.15%	1.012
AC	5.20%	5.03%	1.034
CC	2.72%	2.74%	0.992
GC	2.18%	2.24%	0.970
TC	5.66%	5.75%	0.984
AG	5.17%	5.19%	0.995
CG	2.02%	2.06%	0.978
GG	2.72%	2.74%	0.992
TG	5.84%	5.76%	1.014
AT	10.39%	10.44%	0.995
CT	5.17%	5.19%	0.995
GT	5.20%	5.03%	1.034
TT	13.48%	13.57%	0.994
AAA	5.84%	5.78%	1.011
CAA	2.29%	2.34%	0.979
GAA	2.08%	2.15%	0.966
TAA	3.28%	3.30%	0.992
ACA	2.04%	1.96%	1.041
CCA	1.14%	1.12%	1.015
GCA	0.76%	0.76%	1.004
TCA	1.91%	1.93%	0.989
AGA	2.11%	2.15%	0.983
CGA	0.69%	0.72%	0.954
GGA	0.94%	0.94%	0.998
TGA	1.91%	1.93%	0.989
ATA	3.26%	3.22%	1.011
CTA	1.37%	1.34%	1.022
GTA	1.36%	1.29%	1.056
TTA	3.28%	3.30%	0.992
AAC	1.94%	1.99%	0.974
CAC	1.07%	0.95%	1.130
GAC	0.84%	0.81%	1.033
TAC	1.36%	1.29%	1.056
ACC	0.89%	0.90%	0.987
CCC	0.47%	0.46%	1.017
GCC	0.42%	0.43%	0.965
TCC	0.94%	0.94%	0.998
AGC	0.74%	0.77%	0.956
CGC	0.26%	0.28%	0.929
GGC	0.42%	0.43%	0.965
TGC	0.76%	0.76%	1.004
ATC	1.65%	1.69%	0.976
CTC	1.10%	1.10%	0.998
GTC	0.84%	0.81%	1.033
TTC	2.08%	2.15%	0.966
AAG	2.02%	2.03%	0.994
CAG	0.68%	0.71%	0.948
GAG	1.10%	1.10%	0.998
TAG	1.37%	1.34%	1.022
ACG	0.71%	0.67%	1.067
CCG	0.36%	0.39%	0.907
GCG	0.26%	0.28%	0.929
TCG	0.69%	0.72%	0.954
AGG	0.76%	0.77%	0.985
CGG	0.36%	0.39%	0.907
GGG	0.47%	0.46%	1.017
TGG	1.14%	1.12%	1.015
ATG	1.80%	1.76%	1.023
CTG	0.68%	0.71%	0.948
GTG	1.07%	0.95%	1.130
TTG	2.29%	2.34%	0.979
AAT	3.68%	3.77%	0.977
CAT	1.80%	1.76%	1.023
GAT	1.65%	1.69%	0.976
TAT	3.26%	3.22%	1.011
ACT	1.56%	1.50%	1.038
CCT	0.76%	0.77%	0.985
GCT	0.74%	0.77%	0.956
TCT	2.11%	2.15%	0.983
AGT	1.56%	1.50%	1.038
CGT	0.71%	0.67%	1.067
GGT	0.89%	0.90%	0.987
TGT	2.04%	1.96%	1.041
ATT	3.68%	3.77%	0.977
CTT	2.02%	2.03%	0.994
GTT	1.94%	1.99%	0.974
TTT	5.84%	5.78%	1.011
